{
  "Version": "2012-10-17",
  "Statement": [
    {
      "Effect":"Allow",
      "Action":[
        "Glue:Get*",
        "Glue:StartCrawler",
        "Glue:GetCrawlerMetrics",
        "Glue:ListJobs",
        "Glue:StartJobRun",
        "Glue:Batch*"
      ],
      "Resource":[
        "*"
      ]
    },
    {
      "Effect":"Allow",
      "Action":[
        "lambda:InvokeFunction"
      ],
      "Resource":[
        "*"
      ]
    },
    {
      "Effect":"Allow",
      "Action":[
        "secretsmanager:GetSecretValue"
      ],
      "Resource":[
        "arn:aws:secretsmanager:us-east-1:${account_id}:secret:snowflake*"
      ]
    },
    {
      "Effect":"Allow",
      "Action":[
        "ssm:*"
      ],
      "Resource":[
        "*"
      ]
    },
    {
      "Action": [
        "s3:AbortMultipartUpload",
        "s3:GetObject",
        "s3:GetObjectAcl",
        "s3:GetObjectVersion",
        "s3:ListMultipartUploadParts",
        "s3:PutObject",
        "s3:PutObjectAcl"
      ],
      "Resource": [
        "arn:aws:s3:::*log*",
        "arn:aws:s3:::*log*/*"
      ],
      "Effect": "Allow"
    },
    {
      "Action": [

        "s3:GetObject",
        "s3:PutObject",
        "s3:ListBucket"
      ],
      "Resource": [
        "arn:aws:s3:::*code*",
        "arn:aws:s3:::*code*/*"
      ],
      "Effect": "Allow"
    }
  ]
}